COMP/STAT112 Notebook - 13 Dates
…
# Remove only those missing body_mass_g
penguins_w_body_mass <- penguins %>% filter(!is.na(body_mass_g))
# Remove rows missing *any* variable (use sparingly!)
penguins_complete <- penguins %>% na.omit()
# na.omit() drops rows with ANY NA; use only when you truly need complete cases

# Exercise 2: More Selecting
# Keep everything except year and island
penguins %>% select(-year, -island)

# A tibble: 344 × 6
   species bill_length_mm bill_depth_mm flipper_length_mm body_mass_g sex   
   <fct>            <dbl>         <dbl>             <int>       <int> <fct> 
 1 Adelie            39.1          18.7               181        3750 male  
 2 Adelie            39.5          17.4               186        3800 female
 3 Adelie            40.3          18                 195        3250 female
 4 Adelie            NA            NA                  NA          NA <NA>  
 5 Adelie            36.7          19.3               193        3450 female
 6 Adelie            39.3          20.6               190        3650 male  
 7 Adelie            38.9          17.8               181        3625 female
 8 Adelie            39.2          19.6               195        4675 male  
 9 Adelie            34.1          18.1               193        3475 <NA>  
10 Adelie            42            20.2               190        4250 <NA>  
# ℹ 334 more rows

# Keep species and all measurements in millimeters
penguins %>% select(species, ends_with("_mm"))

# A tibble: 344 × 4
   species bill_length_mm bill_depth_mm flipper_length_mm
   <fct>            <dbl>         <dbl>             <int>
 1 Adelie            39.1          18.7               181
 2 Adelie            39.5          17.4               186
 3 Adelie            40.3          18                 195
 4 Adelie            NA            NA                  NA
 5 Adelie            36.7          19.3               193
 6 Adelie            39.3          20.6               190
 7 Adelie            38.9          17.8               181
 8 Adelie            39.2          19.6               195
 9 Adelie            34.1          18.1               193
10 Adelie            42            20.2               190
# ℹ 334 more rows

# Keep species and all bill-related measurements
penguins %>% select(species, starts_with("bill"))

# A tibble: 344 × 3
   species bill_length_mm bill_depth_mm
   <fct>            <dbl>         <dbl>
 1 Adelie            39.1          18.7
 2 Adelie            39.5          17.4
 3 Adelie            40.3          18  
 4 Adelie            NA            NA  
 5 Adelie            36.7          19.3
 6 Adelie            39.3          20.6
 7 Adelie            38.9          17.8
 8 Adelie            39.2          19.6
 9 Adelie            34.1          18.1
10 Adelie            42            20.2
# ℹ 334 more rows

# Keep species and all length-related measurements
penguins %>% select(species, contains("length"))

# A tibble: 344 × 3
   species bill_length_mm flipper_length_mm
   <fct>            <dbl>             <int>
 1 Adelie            39.1               181
 2 Adelie            39.5               186
 3 Adelie            40.3               195
 4 Adelie            NA                  NA
 5 Adelie            36.7               193
 6 Adelie            39.3               190
 7 Adelie            38.9               181
 8 Adelie            39.2               195
 9 Adelie            34.1               193
10 Adelie            42                 190
# ℹ 334 more rows

# Exercise 3: Arranging, Counting, Grouping by Multiple
# Sort by species then island
penguins %>% arrange(species, island)

# A tibble: 344 × 8
   species island bill_length_mm bill_depth_mm flipper_length_mm body_mass_g
   <fct>   <fct>           <dbl>         <dbl>             <int>       <int>
 1 Adelie  Biscoe           37.8          18.3               174        3400
 2 Adelie  Biscoe           37.7          18.7               180        3600
 3 Adelie  Biscoe           35.9          19.2               189        3800
 4 Adelie  Biscoe           38.2          18.1               185        3950
 5 Adelie  Biscoe           38.8          17.2               180        3800
 6 Adelie  Biscoe           35.3          18.9               187        3800
 7 Adelie  Biscoe           40.6          18.6               183        3550
 8 Adelie  Biscoe           40.5          17.9               187        3200
 9 Adelie  Biscoe           37.9          18.6               172        3150
10 Adelie  Biscoe           40.5          18.9               180        3950
# ℹ 334 more rows
# ℹ 2 more variables: sex <fct>, year <int>
…
# Total births overall
Birthdays %>% summarize(total_births = sum(births))

  total_births
1     70486538

# Total births per state, sorted low→high
Birthdays %>% 
  group_by(state) %>% 
  summarize(total = sum(births)) %>% 
  arrange(total)

# A tibble: 51 × 2
   state  total
   <chr>  <int>
 1 VT    147886
 2 WY    154019
 3 AK    185385
 4 DE    188705
 5 SD    235734
 6 ND    238696
 7 NV    241470
 8 MT    253884
 9 NH    264984
10 RI    265038
# ℹ 41 more rows
…
