COMP/STAT112 Notebook - 14 Joining
…
# Part e: GPA for each instructor
grades %>%
  left_join(courses, by = "sessionID") %>%
  left_join(gpa_conversion, by = "grade") %>%
  group_by(iid) %>%
  summarize(instructor_gpa = mean(gp, na.rm = TRUE), .groups = "drop") %>%
  arrange(instructor_gpa)

Warning in left_join(., courses, by = "sessionID"): Detected an unexpected many-to-many relationship between `x` and `y`.
ℹ Row 64 of `x` matches multiple rows in `y`.
ℹ Row 807 of `y` matches multiple rows in `x`.
ℹ If a many-to-many relationship is expected, set `relationship =
  "many-to-many"` to silence this warning.

# A tibble: 364 × 2
   iid     instructor_gpa
   <chr>            <dbl>
 1 inst265           1.3 
 2 inst444           1.7 
 3 inst513           1.85
 4 inst200           2   
 5 inst507           2.2 
 6 inst445           2.3 
 7 inst420           2.6 
 8 inst262           2.65
 9 inst176           2.66
10 inst234           2.7 
# ℹ 354 more rows
…
