COMP/STAT112 Notebook - 17 Strings
…
# Exercise 6: Enrollment & departments
# Example explorations:

# Numerical summary: median and count of enrollments by department
enrollments %>%
  group_by(dept) %>%
  summarize(
    median_enroll = median(enroll),
    section_count = n(),
    .groups = "drop"
  ) %>%
  arrange(desc(section_count))

# A tibble: 38 × 3
   dept  median_enroll section_count
   <chr>         <dbl>         <int>
 1 ENGL           15.5            30
 2 COMP           17              28
 3 ENVI           18              28
 4 ECON           20              27
 5 POLI           18              27
 6 PSYC           21              27
 7 SPAN           15              26
 8 BIOL           16              23
 9 AMST           15              22
10 HIST           15.5            22
# ℹ 28 more rows
…
