COMP/STAT112 Notebook - 12 Wrangling
…
# Multiple summaries
elections_small %>% summarize(median_repub = median(repub_pct_20), total_votes = sum(total_votes_20))

  median_repub total_votes
1        68.29   157949293

# Exercise 8: group_by + summarize
# Summary by state
elections_small %>% 
  group_by(state_name) %>% 
  summarize(median_repub = median(repub_pct_20), total_votes = sum(total_votes_20))

# A tibble: 50 × 3
   state_name           median_repub total_votes
   <chr>                       <dbl>       <int>
 1 Alabama                      70.6     2323304
 2 Arizona                      57.9     3387326
 3 Arkansas                     72.1     1219069
 4 California                   44.8    17495906
 5 Colorado                     56.2     3256953
 6 Connecticut                  41.0     1824280
 7 Delaware                     47.1      504010
 8 District of Columbia          5.4      344356
 9 Florida                      64.6    11067456
10 Georgia                      68       4997716
# ℹ 40 more rows

# Exercise 9: DIY Summaries
# Total votes by state, sorted
elections_small %>% 
  group_by(state_name) %>% 
  summarize(total_votes_state = sum(total_votes_20)) %>% 
  arrange(desc(total_votes_state))

# A tibble: 50 × 2
   state_name     total_votes_state
   <chr>                      <int>
 1 California              17495906
 2 Texas                   11317911
 3 Florida                 11067456
 4 New York                 8616205
 5 Pennsylvania             6925255
 6 Illinois                 6038850
 7 Ohio                     5922202
 8 Michigan                 5539302
 9 North Carolina           5524801
10 Georgia                  4997716
# ℹ 40 more rows

# Total Dem & GOP votes by state
elections_small %>% 
  mutate(dem_votes = round(total_votes_20 * dem_pct_20 / 100),
         rep_votes = round(total_votes_20 * repub_pct_20 / 100)) %>% 
  group_by(state_name) %>% 
  summarize(dem_votes = sum(dem_votes), rep_votes = sum(rep_votes))

# A tibble: 50 × 3
   state_name           dem_votes rep_votes
   <chr>                    <dbl>     <dbl>
 1 Alabama                 849664   1441155
 2 Arizona                1672127   1661671
 3 Arkansas                423919    760641
 4 California            11109642   6006031
 5 Colorado               1804393   1364627
 6 Connecticut            1080677    715315
 7 Delaware                296274    200601
 8 District of Columbia    317324     18595
 9 Florida                5297131   5668600
10 Georgia                2473661   2461869
# ℹ 40 more rows

# States the Democrats won in 2020
elections_small %>% 
  mutate(dem_votes = round(total_votes_20 * dem_pct_20 / 100),
         rep_votes = round(total_votes_20 * repub_pct_20 / 100)) %>% 
  group_by(state_name) %>% 
  summarize(dem_votes = sum(dem_votes), rep_votes = sum(rep_votes)) %>% 
  filter(dem_votes > rep_votes)

# A tibble: 26 × 3
   state_name           dem_votes rep_votes
   <chr>                    <dbl>     <dbl>
 1 Arizona                1672127   1661671
 2 California            11109642   6006031
 3 Colorado               1804393   1364627
 4 Connecticut            1080677    715315
 5 Delaware                296274    200601
 6 District of Columbia    317324     18595
 7 Georgia                2473661   2461869
 8 Hawaii                  366121    196865
 9 Illinois               3471916   2446931
10 Maine                   430466    359897
# ℹ 16 more rows
…
